<?xml version="1.0" ?>
<sdf version="1.5">
  <world name="default">
    <!-- A global light source -->
    <include>
      <uri>model://sun</uri>
    </include>
    <!-- A ground plane -->
    <include>
      <uri>model://ground_plane</uri>
    </include>

    <!-- Testing the automatic population of objects -->
    <population name="can_population6">
      <model name="can6">
        <include>
          <uri>model://coke_can</uri>
        </include>
      </model>
      <pose>0 0 0 0 0 0</pose>
      <box>
        <size>2 1 0.01</size>
      </box>
      <model_count>5</model_count>
      <distribution>
        <type>linear-x</type>
      </distribution>
    </population>

    <population name="can_population7">
      <model name="can7">
        <include>
          <uri>model://coke_can</uri>
        </include>
      </model>
      <pose>0.01 0.01 0 0 0 0</pose>
      <box>
        <size>2 1 0.01</size>
      </box>
      <model_count>3</model_count>
      <distribution>
        <type>linear-x</type>
      </distribution>
    </population>
  </world>
</sdf>

